Data form the API:  {
  totalRecords: 3093,
  limit: 3,
  offset: 0,
  opportunitiesData: [
    {
      noticeId: 'e3d3e84a866d47b8980538f593e5d60d',
      title: '61--HOUSING,ELECTRICAL',
      solicitationNumber: 'SPE4A524T169U',
      fullParentPathName: 'DEPT OF DEFENSE.DEFENSE LOGISTICS AGENCY.DLA AVIATION.DLA AV RICHMOND.DLA AVIATION',
      fullParentPathCode: '097.97AS.DLA AVIATION.DLA AV RICHMOND.SPE4A5',
      postedDate: '2024-05-27',
      type: 'Award Notice',
      baseType: 'Award Notice',
      archiveType: 'auto15',
      archiveDate: '2024-06-11',
      typeOfSetAsideDescription: null,
      typeOfSetAside: null,
      responseDeadLine: null,
      naicsCode: '335311',
      naicsCodes: [Array],
      classificationCode: '61',
      active: 'Yes',
      award: [Object],
      pointOfContact: [Array],
      description: 'https://api.sam.gov/prod/opportunities/v1/noticedesc?noticeid=e3d3e84a866d47b8980538f593e5d60d',
      organizationType: 'OFFICE',
      officeAddress: [Object],
      placeOfPerformance: null,
      additionalInfoLink: null,
      uiLink: 'https://sam.gov/opp/e3d3e84a866d47b8980538f593e5d60d/view',
      links: [Array],
      resourceLinks: null
    },
    {
      noticeId: 'e39c8b09d5624cf7881cfef2fce18d1e',
      title: '62--LIGHT,INDICATOR',
      solicitationNumber: 'SPRPA124T1611',
      fullParentPathName: 'DEPT OF DEFENSE.DEFENSE LOGISTICS AGENCY.DLA AVIATION.DLA AVIATION PHILADELPHIA.DLA AVIATION AT PHILADELPHIA, PA',
      fullParentPathCode: '097.97AS.DLA AVIATION.DLA AV PHILADELPHIA.SPRPA1',
      postedDate: '2024-05-27',
      type: 'Award Notice',
      baseType: 'Award Notice',
      archiveType: 'auto15',
      archiveDate: '2024-06-11',
      typeOfSetAsideDescription: null,
      typeOfSetAside: null,
      responseDeadLine: null,
      naicsCode: '334419',
      naicsCodes: [Array],
      classificationCode: '62',
      active: 'Yes',
      award: [Object],
      pointOfContact: [Array],
      description: 'https://api.sam.gov/prod/opportunities/v1/noticedesc?noticeid=e39c8b09d5624cf7881cfef2fce18d1e',
      organizationType: 'OFFICE',
      officeAddress: [Object],
      placeOfPerformance: null,
      additionalInfoLink: null,
      uiLink: 'https://sam.gov/opp/e39c8b09d5624cf7881cfef2fce18d1e/view',
      links: [Array],
      resourceLinks: null
    },
    {
      noticeId: 'cf9608721f8f4727beb3f916e48c3a0e',
      title: '61--CABLE ASSEMBLY,SPEC',
      solicitationNumber: 'SPE4A624T670K',
      fullParentPathName: 'DEPT OF DEFENSE.DEFENSE LOGISTICS AGENCY.DLA AVIATION.DLA AV RICHMOND.DLA AVIATION',
      fullParentPathCode: '097.97AS.DLA AVIATION.DLA AV RICHMOND.SPE4A5',
      postedDate: '2024-05-27',
      type: 'Award Notice',
      baseType: 'Award Notice',
      archiveType: 'auto15',
      archiveDate: '2024-06-11',
      typeOfSetAsideDescription: null,
      typeOfSetAside: null,
      responseDeadLine: null,
      naicsCode: '334419',
      naicsCodes: [Array],
      classificationCode: '61',
      active: 'Yes',
      award: [Object],
      pointOfContact: [Array],
      description: 'https://api.sam.gov/prod/opportunities/v1/noticedesc?noticeid=cf9608721f8f4727beb3f916e48c3a0e',
      organizationType: 'OFFICE',
      officeAddress: [Object],
      placeOfPerformance: null,
      additionalInfoLink: null,
      uiLink: 'https://sam.gov/opp/cf9608721f8f4727beb3f916e48c3a0e/view',
      links: [Array],
      resourceLinks: null
    }
  ],
  links: [
    {
      rel: 'self',
      href: 'null/opportunities/v2/search?limit=3&postedFrom=05%2F01%2F2024&postedTo=05%2F28%2F2024&ptype=a&deptname=general'
    }
  ]
}